…
    ## [1] "C:\\Users\\Seminar\\Documents\\rise-of-populism\\data\\populist_parties.xlsx"

Populistische Parteien umkodieren
=================================

    ## # A tibble: 83 x 8
    ##    party_cntry  party_name   party_name_engli~ populism2 liberalism family
    ##    <chr>        <chr>        <chr>             <dbl+lbl> <dbl+lbl>  <fct> 
    ##  1 aus_BZO      Bündnis Zuk~ Alliance for the~ 69.79059~ 69.166664~ rad r~
    ##  2 aus_FPO      Freiheitlic~ Freedom Party of~ 82.55639~ 87.007577~ rad r~
    ##  3 aus_TeamStr~ Team Strona~ Team Stronach fo~ 73.51892~ 77.159091~ no fa~
    ##  4 be_PP        Parti Popul~ People’s Party    69.40284~ 76.136363~ cons  
    ##  5 be_PVDA      Partij van ~ Workers’ Party o~ 71.95302~ 21.761363~ rad l~
    ##  6 be_VB        Vlaams Blok~ Flemish Bloc; Fl~ 81.97477~ 82.272727~ rad r~
    ##  7 bul_ATAKA    Nacionalno ~ National Union A~ 93.85191~ 96.102103~ rad r~
    ##  8 bul_BBT      Bulgaria be~ Bulgaria without~ 64.59286~ 78.641244~ no fa~
    ##  9 bul_NFSB     Natsionalen~ National Front f~ 75.21903~ 82.315340~ cons  
    ## 10 bul_VMRO-BND Dviženie Ge~ Gergiovden-VMRO   75.28647~ 88.494318~ cons  
    ## # ... with 73 more rows, and 2 more variables: links <fct>, cluster <chr>
    ## 
    ##          Groen!            CD&V            N-VA  Lijst Dedecker 
    ##              78             165             259               3 
    ##            SP.A           PVDA+   Vlaams Belang        Open VLD 
    ##             114              18              30             105 
    ##             CDH           Ecolo  Front National              MR 
    ##              42              60               3             131 
    ##              PS             PTB Parti Populaire           Other 
    ##             176              28               5              51 
    ##          Blanco        Ongeldig  Not applicable         Refusal 
    ##               0               0               0               0 
    ##      Don't know       No answer 
    ##               0               0

    ## # A tibble: 34,837 x 500
    ##    name   essround edition proddate   idno cntry   nwspol netusoft netustm
    ##    <chr>     <dbl> <chr>   <chr>     <dbl> <chr+l> <dbl+> <dbl+lb> <dbl+l>
    ##  1 ESS8e~     8.00 1.0     31.10.20~  1.00 AT      120    4        180    
    ##  2 ESS8e~     8.00 1.0     31.10.20~  2.00 AT      120    5        120    
    ##  3 ESS8e~     8.00 1.0     31.10.20~  4.00 AT      30     2        <NA>   
    ##  4 ESS8e~     8.00 1.0     31.10.20~  6.00 AT      30     5        120    
    ##  5 ESS8e~     8.00 1.0     31.10.20~ 10.0  AT      30     5        180    
    ##  6 ESS8e~     8.00 1.0     31.10.20~ 11.0  AT      60     5        120    
    ##  7 ESS8e~     8.00 1.0     31.10.20~ 12.0  AT      15     2        <NA>   
    ##  8 ESS8e~     8.00 1.0     31.10.20~ 13.0  AT      45     4        30     
    ##  9 ESS8e~     8.00 1.0     31.10.20~ 14.0  AT      10     5        120    
    ## 10 ESS8e~     8.00 1.0     31.10.20~ 15.0  AT      60     4        120    
    ## # ... with 34,827 more rows, and 491 more variables: ppltrst <dbl+lbl>,
    ## #   pplfair <dbl+lbl>, pplhlp <dbl+lbl>, polintr <dbl+lbl>,
    ## #   psppsgva <dbl+lbl>, actrolga <dbl+lbl>, psppipla <dbl+lbl>,
    ## #   cptppola <dbl+lbl>, trstprl <dbl+lbl>, trstlgl <dbl+lbl>,
    ## #   trstplc <dbl+lbl>, trstplt <dbl+lbl>, trstprt <dbl+lbl>,
    ## #   trstep <dbl+lbl>, trstun <dbl+lbl>, vote <dbl+lbl>,
    ## #   prtvtbat <dbl+lbl>, prtvtcbe <dbl+lbl>, prtvtfch <dbl+lbl>,
    ## #   prtvtdcz <dbl+lbl>, prtvede1 <dbl+lbl>, prtvede2 <dbl+lbl>,
    ## #   prtvtfee <dbl+lbl>, prtvtdfi <dbl+lbl>, prtvtcfr <dbl+lbl>,
…
